Date mischief - Learn R
…
What can we do to make the data more tidy?

glimpse(biscoe)
glimpse(dream)
glimpse(torg)

Clean-up time

Step 1

Take a closer look at the torg data. Why does it have so many more rows? Try arranging the data by the date column, what do you notice?

arrange(torg, date)

## # A tibble: 2,192 × 2
##    date       temperature_c
##    <date>             <dbl>
##  1 2007-01-01           1.5
##  2 2007-01-01           1.5
##  3 2007-01-02           1.3
##  4 2007-01-02           1.3
##  5 2007-01-03           4.1
##  6 2007-01-03           4.1
##  7 2007-01-04          -0.3
##  8 2007-01-04          -0.3
##  9 2007-01-05           2.3
## 10 2007-01-05           2.3
## # ℹ 2,182 more rows
…
